153453 838261 525
791716 768843 437
717592 39614 509
976763 559989 525
894256 349257 525
927019 321534 525
43556 741055 509
646827 958086 525
208776 664677 509
322505 397046 441
103821 90189 341
877199 103059 525
293689 208961 443
307207 968633 525
166425 810092 509
642596 816140 504
375351 247773 441
148924 973305 525
655020 934060 525
405009 918741 525
806097 497710 509
821573 249289 509
754133 136219 509
630337 31847 509
292794 294662 358
804984 884325 525
508111 265138 449
941987 739238 525
920891 606612 525
136863 61210 354
187757 33228 383
187935 967859 525
300692 281463 389
20586 998446 525
347540 547264 470
806311 941620 525
489913 486573 382
611865 993415 525
58202 932693 525
837873 257345 525
329443 150676 443
73558 854310 525
564641 293398 470
711599 404484 509
269935 496650 449
521228 645603 509
923350 844101 476
259600 53305 443
146340 46924 375
673162 393437 509
74769 794559 509
711616 241954 509
189586 403989 443
149435 537018 470
324074 780747 509
235273 441498 449
907616 892054 445
504673 682901 509
14203 993043 525
535843 325925 470
77970 704440 509
956399 139773 525
750223 877199 525
146762 599245 470
127854 354505 443
452690 695386 509
817524 311127 509
495956 290079 449
847381 349372 525
997730 686463 525
490575 109290 449
495311 532333 470
599679 212087 470
850457 319203 525
105549 487020 449
596758 238511 470
239112 406053 441
715928 940295 525
293941 707018 509
611810 426829 470
640865 746891 504
525795 73509 470
631521 931620 525
428442 936008 525
995194 285899 525
368377 819758 509
516168 955256 525
692218 105027 509
599984 73367 470
733506 2992 509
337012 37798 443
692468 111423 509
581999 398583 470
723334 784671 468
472913 892419 525
725109 155057 509
314156 638053 509
616053 537449 452
496105 816246 509
973821 117204 525
193822 905927 525
386035 832326 509
911212 572190 525
118512 510698 449
695488 368818 509
920300 266696 525
112423 245432 443
4346 567502 470
568251 436514 470
113837 520541 470
441766 518320 470
275993 206809 443
865699 621298 525
100130 881238 525
433960 425323 387
403736 27590 443
803160 700551 504
880754 127547 525
839706 862065 419
305050 405264 441
897346 693433 525
699160 287810 509
990751 381381 525
505412 14407 449
984883 357808 525
853365 127594 525
999272 259745 525
233295 438250 449
998878 952608 458
933856 269606 525
977181 861104 507
890078 240153 525
458050 782043 509
339942 24887 443
423014 821811 509
370873 823227 509
659884 388352 509
925192 457064 525
932913 839290 476
762239 737519 424
245259 586026 470
676496 654760 442
911323 914318 401
229152 215247 386
961673 484278 525
991683 120563 525
348048 771880 509
407766 700667 509
98019 190256 383
795816 776259 437
585027 125179 470
624935 710389 509
244096 350933 441
965918 261525 525
194351 265157 443
620553 133858 470
135284 724603 509
886537 65058 525
932832 625811 525
877982 461482 525
214216 621395 470
149560 763819 509
904208 284757 525
475494 774497 509
286496 301618 389
758970 163551 509
259848 212932 443
364407 274316 441
995448 896192 507
896889 126226 525
864244 636479 525
879137 908698 445
768404 224730 509
263456 158484 443
986578 302586 525
374991 162768 443
667894 352334 509
322387 590463 470
103855 528373 470
290138 500278 449
551060 821029 509
535477 239585 470
684984 116611 509
10741 103909 351
881770 223195 525
329070 387329 441
719431 419328 509
818162 532385 509
983858 172390 525
99411 142486 354
878025 150909 525
362817 783850 509
359005 911282 525
428100 895285 525
142166 732279 509
747071 735248 424
254203 575527 470
37857 379485 443
471183 221898 449
560096 459609 470
640311 519662 509
21120 600583 470
899126 411224 525
296518 757515 509
546747 865872 525
145393 871908 525
199970 422705 449
104865 613953 470
295233 567488 470
191513 684675 509
226221 954513 525
965931 795975 525
111630 363028 443
208421 707468 509
496638 698425 509
608319 166797 470
531323 114132 470
860592 74450 525
945090 721877 525
355843 619349 470
306909 530449 470
581118 738257 509
429625 792618 509
349698 483175 449
720939 525911 509
278781 179990 443
935121 788389 525
840657 341335 525
873049 998995 507
462111 885067 525
537750 450594 470
47126 759613 509
12272 448027 449
571456 912022 525
345067 935809 525
302671 755994 509
679649 856133 525
765760 743977 424
10198 64691 340
485669 809564 509
539834 9619 470
295682 76650 443
913959 640100 525
700556 185884 509
31213 971475 525
661079 876588 525
784043 218170 509
181449 936139 525
880748 876576 401
910377 847202 476
